{
	"ComponentBuild": {
		"methods": [
			"_startBuild",
			"UTIL_BuildComponent",
			"UTIL_DateAndTimeToISO",
			"UTIL_WriteMethodComments"
		]
	},
	"Default Folder": {
		"groups": [
			"Default Forms",
			"Default Project Methods",
			"Default Tables"
		]
	},
	"Default Forms": {},
	"Default Project Methods": {},
	"Default Tables": {},
	"trash": {}
}