﻿{
	"CFBundleName": "Process Viewer",
	"CFBundleShortVersionString": "20.5 (4D 20.5 LTS)",
	"CFBundleGetInfoString": "Process Viewer 20.5 (4D 20.5 LTS), 2025-01-20",
	"NSHumanReadableCopyright": "©2004-2025, Mac to Basics"
}